<?xml version="1.0" encoding="utf-8"?>
<!-- Generator: Adobe Illustrator 24.2.3, SVG Export Plug-In . SVG Version: 6.00 Build 0)  -->
<svg version="1.1" id="Layer_1" xmlns="http://www.w3.org/2000/svg" xmlns:xlink="http://www.w3.org/1999/xlink" x="0px" y="0px"
	 viewBox="0 0 60 60" style="enable-background:new 0 0 60 60;" xml:space="preserve">
<style type="text/css">
	.st0{fill:#FFFFFF;}
</style>
<g>
	<path class="st0" d="M30,56.2C15.6,56.2,3.8,44.4,3.8,30C3.8,15.6,15.6,3.8,30,3.8c14.4,0,26.2,11.7,26.2,26.2
		C56.2,44.4,44.4,56.2,30,56.2z M30,9.8c-11.1,0-20.2,9-20.2,20.2c0,11.1,9,20.2,20.2,20.2c11.1,0,20.2-9,20.2-20.2
		C50.2,18.9,41.1,9.8,30,9.8z"/>
</g>
<polygon class="st0" points="41.3,23 37,18.7 30,25.8 23,18.7 18.7,23 25.8,30 18.7,37 23,41.3 30,34.2 37,41.3 41.3,37 34.2,30 "/>
</svg>
